<svg xmlns="http://www.w3.org/2000/svg" width="42" height="41.997" viewBox="0 0 42 41.997">
  <g id="closing_meeting" data-name="closing meeting" transform="translate(0.5 0.463)">
    <g id="interview" transform="translate(-0.002 0.015)">
      <path id="Path_1002" data-name="Path 1002" d="M1.427,8.238a6,6,0,0,0,.784,8.523l.576.472a18.024,18.024,0,0,0,21,21l.472.576a6.005,6.005,0,0,0,8.523.784l.016.017a4.8,4.8,0,0,0,6.8-6.8L39.58,32.8A6,6,0,0,0,38.8,24.28l-.576-.472a18.024,18.024,0,0,0-21-21l-.472-.576a6,6,0,0,0-8.523-.784l-.016-.017a4.8,4.8,0,0,0-6.8,6.8l.017.016ZM37.9,37.914a2.4,2.4,0,1,1,0-3.4A2.405,2.405,0,0,1,37.9,37.914Zm-.357-6.438-.1.1a4.8,4.8,0,0,0-5.881,5.881l-.1.1a3.6,3.6,0,0,1-5.337-.266L23.217,33.74a1.2,1.2,0,0,1,.08-1.61l4.408-4.408a1.2,1.2,0,1,1,1.7,1.7L25.765,33.06l2.217,2.71,1.86-1.521L29,33.221l2.1-2.1,2.1-2.1,1.027.84L35.754,28l-2.71-2.217-1.236,1.236a3.63,3.63,0,0,0-1.7-1.7l2-2a1.2,1.2,0,0,1,1.61-.08l3.551,2.906a3.6,3.6,0,0,1,.266,5.337ZM20.5,4.9A15.633,15.633,0,0,1,36.119,20.52c0,.5-.026,1.008-.074,1.509l-.8-.655a3.592,3.592,0,0,0-4.83.241L21.6,30.431a3.592,3.592,0,0,0-.241,4.83l.655.8c-.5.048-1,.074-1.509.074A15.633,15.633,0,0,1,4.888,20.52c0-.5.026-1.008.074-1.509l.8.655a3.592,3.592,0,0,0,4.83-.241l8.817-8.817a3.592,3.592,0,0,0,.241-4.83l-.655-.8C19.5,4.93,20,4.9,20.5,4.9ZM12.275,2.431a3.562,3.562,0,0,1,2.61,1.317L17.79,7.3a1.2,1.2,0,0,1-.08,1.61L15.7,10.916a3.613,3.613,0,0,0-1.7-1.7L15.242,7.98l-2.217-2.71-1.86,1.521.841,1.027-4.2,4.2-1.027-.84L5.253,13.041l2.71,2.217L11.6,11.619a1.2,1.2,0,0,1,1.7,1.7L8.893,17.726a1.2,1.2,0,0,1-1.61.08L3.732,14.9a3.562,3.562,0,0,1-1.317-2.61A3.6,3.6,0,0,1,3.566,9.463,4.8,4.8,0,0,0,9.45,3.58a3.621,3.621,0,0,1,2.825-1.149Zm-9.166.694a2.4,2.4,0,1,1,0,3.4,2.405,2.405,0,0,1,0-3.4Z" transform="translate(0 0)" fill="#dd6838" stroke="#fff" stroke-width="1"/>
      <path id="Path_1003" data-name="Path 1003" d="M176.256,184.73l8.494-8.494-5.1-5.1-8.494,8.494Zm5.1-8.494-5.1,5.1-1.7-1.7,5.1-5.1Z" transform="translate(-157.452 -157.415)" fill="#dd6838" stroke="#fff" stroke-width="1"/>
    </g>
  </g>
</svg>
