<svg xmlns="http://www.w3.org/2000/svg" width="29.472" height="29.376" viewBox="0 0 29.472 29.376">
  <g id="HR" transform="translate(0 -0.831)">
    <path id="Path_995" data-name="Path 995" d="M123.4.831h-6.953a.921.921,0,0,0-.921.921V5.744a.921.921,0,0,0,.921.921h.045a.348.348,0,0,1,.348.348V8.178a.216.216,0,0,0,.354.167l1.953-1.6a.348.348,0,0,1,.221-.079H123.4a.921.921,0,0,0,.921-.921V1.752A.921.921,0,0,0,123.4.831Z" transform="translate(-108.878)" fill="#f7d4ad"/>
    <path id="Path_996" data-name="Path 996" d="M239.85,52H246.8a.921.921,0,0,1,.921.921V57.07a.921.921,0,0,1-.921.921h-.045a.348.348,0,0,0-.348.348V59.5a.216.216,0,0,1-.354.167l-1.953-1.6a.348.348,0,0,0-.221-.079H239.85a.921.921,0,0,1-.921-.921V52.92A.921.921,0,0,1,239.85,52Z" transform="translate(-225.176 -48.223)" fill="#ecbd83"/>
    <g id="Group_899" data-name="Group 899" transform="translate(7.979 2.244)">
      <path id="Path_997" data-name="Path 997" d="M143.956,25.371h-4.9a.445.445,0,0,0,0,.889h4.9a.445.445,0,0,0,0-.889Z" transform="translate(-138.608 -25.371)" fill="#e2a876"/>
      <path id="Path_998" data-name="Path 998" d="M142.255,58.81h-3.2a.445.445,0,0,0,0,.889h3.2a.445.445,0,1,0,0-.889Z" transform="translate(-138.608 -56.885)" fill="#e2a876"/>
      <path id="Path_999" data-name="Path 999" d="M268.842,78.944h-4.9a.445.445,0,1,0,0,.889h4.9a.445.445,0,1,0,0-.889Z" transform="translate(-256.305 -75.86)" fill="#e2a876"/>
      <path id="Path_1000" data-name="Path 1000" d="M267.141,112.383h-3.2a.445.445,0,0,0,0,.889h3.2a.445.445,0,0,0,0-.889Z" transform="translate(-256.305 -107.374)" fill="#e2a876"/>
    </g>
    <path id="Path_1001" data-name="Path 1001" d="M109.53,283.467H93.071a1.118,1.118,0,0,1-1.118-1.118v-.531h18.695v.531A1.118,1.118,0,0,1,109.53,283.467Z" transform="translate(-86.66 -264.813)" fill="#7c5757"/>
    <g id="Group_900" data-name="Group 900" transform="translate(0.003 18.654)">
      <path id="Path_1002" data-name="Path 1002" d="M87.174,384.878a.445.445,0,0,0-.87.186l1.369,6.4a.445.445,0,0,0,.87-.186Z" transform="translate(-81.33 -380.263)" fill="#dad8db"/>
      <path id="Path_1003" data-name="Path 1003" d="M1.958,384.535a.445.445,0,0,0-.528.342l-1.369,6.4a.445.445,0,1,0,.87.186l1.369-6.4A.445.445,0,0,0,1.958,384.535Z" transform="translate(-0.05 -380.262)" fill="#dad8db"/>
      <path id="Path_1004" data-name="Path 1004" d="M207.811,310.463h-6.054a3.2,3.2,0,0,0,1.383,1.717,1.4,1.4,0,0,1,.689,1.194v8.2h1.833v-8.148a1.4,1.4,0,0,1,.715-1.213A3.2,3.2,0,0,0,207.811,310.463Z" transform="translate(-190.146 -310.463)" fill="#dad8db"/>
    </g>
    <path id="Path_1005" data-name="Path 1005" d="M215.9,495.715h-4.054a.445.445,0,0,0,0,.889H215.9a.445.445,0,1,0,0-.889Z" transform="translate(-199.23 -466.398)" fill="#c7c5c9"/>
    <path id="Path_1006" data-name="Path 1006" d="M6.59,365.253H.722a.7.7,0,0,1-.7-.7V363.6H7.286v.952a.7.7,0,0,1-.7.7Z" transform="translate(-0.024 -341.891)" fill="#ffc269"/>
    <path id="Path_1007" data-name="Path 1007" d="M14.286,184.047v-5.039a3.07,3.07,0,0,1,.9-2.17,1.694,1.694,0,0,1,2.735.43l1.188,2.067-.239,4.713" transform="translate(-13.464 -165.393)" fill="#b2e59f"/>
    <path id="Path_1008" data-name="Path 1008" d="M22.868,321.573h-.946a.357.357,0,0,1-.354-.309l-1.043-7.742H16.084a1.8,1.8,0,0,1-1.8-1.8v-1.259h6.8a2.139,2.139,0,0,1,2.139,2.139v8.612a.357.357,0,0,1-.357.357Z" transform="translate(-13.464 -291.811)" fill="#5d5260"/>
    <path id="Path_1009" data-name="Path 1009" d="M41.433,192.3l2.06,2.212h5.063a1.881,1.881,0,0,0-1.573-1.856l-2.7-.45-1.624-2.825a1.723,1.723,0,0,0-1.748.063C40.339,189.951,40.347,191.31,41.433,192.3Z" transform="translate(-38.2 -177.507)" fill="#95d5a4"/>
    <path id="Path_1010" data-name="Path 1010" d="M19.368,109.24v.811a1.58,1.58,0,0,1-2.862.923,1.549,1.549,0,0,1-.173-.308,1.582,1.582,0,0,1-.124-.615v-.811a1.579,1.579,0,0,1,3.067-.531,1.557,1.557,0,0,1,.092.531Z" transform="translate(-15.276 -100.68)" fill="#f7d4ad"/>
    <path id="Path_1011" data-name="Path 1011" d="M19.275,108.711l-.035-.007-1.443.623a.29.29,0,0,0-.164.184l-.059.2a1.564,1.564,0,0,1-.944,1.229c-.043.015-.085.027-.126.037a1.549,1.549,0,0,1-.173-.308,1.582,1.582,0,0,1-.124-.615v-.811a1.579,1.579,0,0,1,3.067-.531Z" transform="translate(-15.275 -100.682)" fill="#6e4848"/>
    <circle id="Ellipse_126" data-name="Ellipse 126" cx="0.894" cy="0.894" r="0.894" transform="translate(26.893 6.14)" fill="#633c3e"/>
    <path id="Path_1012" data-name="Path 1012" d="M474.979,391.278l-1.369-6.4a.445.445,0,0,0-.87.186l1.369,6.4a.445.445,0,0,0,.87-.186Z" transform="translate(-445.519 -361.609)" fill="#dad8db"/>
    <path id="Path_1013" data-name="Path 1013" d="M388.395,384.535a.445.445,0,0,0-.528.342l-1.369,6.4a.445.445,0,1,0,.87.186l1.369-6.4A.445.445,0,0,0,388.395,384.535Z" transform="translate(-364.24 -361.608)" fill="#dad8db"/>
    <path id="Path_1014" data-name="Path 1014" d="M386.549,365.253h5.868a.7.7,0,0,0,.7-.7V363.6h-7.261v.952A.7.7,0,0,0,386.549,365.253Z" transform="translate(-363.642 -341.891)" fill="#ffc269"/>
    <path id="Path_1015" data-name="Path 1015" d="M0,363.605v.708H6.5v.941h.063a.7.7,0,0,0,.7-.7v-.952Z" transform="translate(0 -341.892)" fill="#ff8b59"/>
    <path id="Path_1016" data-name="Path 1016" d="M385.827,363.605v.708h6.5v.941h.063a.7.7,0,0,0,.7-.7v-.952Z" transform="translate(-363.618 -341.892)" fill="#ff8b59"/>
    <path id="Path_1017" data-name="Path 1017" d="M418.8,184.047v-5.039a3.07,3.07,0,0,0-.9-2.17,1.694,1.694,0,0,0-2.735.43l-1.188,2.067.239,4.713" transform="translate(-390.146 -165.393)" fill="#b8b6ff"/>
    <path id="Path_1018" data-name="Path 1018" d="M342.8,321.573h.946a.357.357,0,0,0,.354-.309l1.043-7.742h4.441a1.8,1.8,0,0,0,1.8-1.8v-1.259h-6.8a2.139,2.139,0,0,0-2.139,2.139v8.612a.357.357,0,0,0,.357.357Z" transform="translate(-322.736 -291.811)" fill="#5d5260"/>
    <path id="Path_1019" data-name="Path 1019" d="M339.239,191.1l-2.06,2.212h-5.063a1.881,1.881,0,0,1,1.573-1.856l2.7-.45,1.735-3.018a1.691,1.691,0,0,1,1.419.172C340.147,188.658,340.192,189.98,339.239,191.1Z" transform="translate(-312.999 -176.302)" fill="#a09eef"/>
    <path id="Path_1020" data-name="Path 1020" d="M437.775,108.932v.811a1.579,1.579,0,1,1-3.159,0v-.811a1.58,1.58,0,0,1,.05-.395h0a1.58,1.58,0,0,1,3.109.4Z" transform="translate(-409.599 -100.389)" fill="#f7d4ad"/>
    <path id="Path_1021" data-name="Path 1021" d="M438.591,108.931v.811a1.572,1.572,0,0,1-.235.829,1.352,1.352,0,0,1-.448-.177,4.786,4.786,0,0,1-1.048-.977l-.059-.2a.288.288,0,0,0-.164-.184l-1.155-.5h0a1.58,1.58,0,0,1,3.109.4Z" transform="translate(-410.415 -100.389)" fill="#6e4848"/>
  </g>
</svg>
