<svg id="Export2" xmlns="http://www.w3.org/2000/svg" width="16" height="20" viewBox="0 0 16 20">
  <path id="Path_414" data-name="Path 414" d="M51.5,138.8H48.448a.39.39,0,0,0,0,.779H51.5a1.159,1.159,0,0,1,1.143,1.168V150.1a1.159,1.159,0,0,1-1.143,1.168H39.3a1.159,1.159,0,0,1-1.143-1.168v-9.348a1.159,1.159,0,0,1,1.143-1.168h3.429a.39.39,0,0,0,0-.779H39.3a1.932,1.932,0,0,0-1.9,1.947V150.1a1.932,1.932,0,0,0,1.9,1.947H51.5a1.932,1.932,0,0,0,1.9-1.947v-9.348A1.932,1.932,0,0,0,51.5,138.8Z" transform="translate(-37.4 -132.042)" fill="#fff"/>
  <path id="Path_415" data-name="Path 415" d="M197.789,246.8a.391.391,0,0,0-.389.389v.584a.389.389,0,1,0,.779,0v-.584A.391.391,0,0,0,197.789,246.8Z" transform="translate(-189.789 -234.784)" fill="#fff"/>
  <path id="Path_416" data-name="Path 416" d="M127.262,4.109l2.785-2.785v9.328a.389.389,0,0,0,.779,0V1.324l2.785,2.785a.376.376,0,0,0,.545,0,.377.377,0,0,0,0-.545L130.709.117a.377.377,0,0,0-.545,0l-3.447,3.447a.386.386,0,0,0,.545.545Z" transform="translate(-122.436)" fill="#fff"/>
</svg>
