<svg id="intry" xmlns="http://www.w3.org/2000/svg" width="44" height="44" viewBox="0 0 44 44">
  <g id="Ellipse_56" data-name="Ellipse 56" fill="#98aa3a" stroke="#664da0" stroke-width="1">
    <circle cx="22" cy="22" r="22" stroke="none"/>
    <circle cx="22" cy="22" r="21.5" fill="none"/>
  </g>
  <g id="export" transform="translate(-22.4 12)">
    <g id="Group_537" data-name="Group 537" transform="translate(37.4)">
      <g id="Group_536" data-name="Group 536" transform="translate(0)">
        <path id="Path_469" data-name="Path 469" d="M50.521,138.8H47.684a.355.355,0,1,0,0,.709h2.837a1.067,1.067,0,0,1,1.064,1.064v8.511a1.067,1.067,0,0,1-1.064,1.064H39.173a1.067,1.067,0,0,1-1.064-1.064v-8.511a1.067,1.067,0,0,1,1.064-1.064h3.192a.355.355,0,0,0,0-.709H39.173a1.778,1.778,0,0,0-1.773,1.773v8.511a1.778,1.778,0,0,0,1.773,1.773H50.521a1.778,1.778,0,0,0,1.773-1.773v-8.511A1.778,1.778,0,0,0,50.521,138.8Z" transform="translate(-37.4 -132.647)" fill="none" stroke="#fff" stroke-width="1"/>
        <path id="Path_470" data-name="Path 470" d="M197.755,246.8a.356.356,0,0,0-.355.355v.532a.355.355,0,1,0,.709,0v-.532A.356.356,0,0,0,197.755,246.8Z" transform="translate(-190.307 -235.86)" fill="none" stroke="#fff" stroke-width="1"/>
        <path id="Path_471" data-name="Path 471" d="M127.2,3.741l2.536-2.536V9.7a.355.355,0,0,0,.709,0V1.206l2.536,2.536a.343.343,0,0,0,.5,0,.343.343,0,0,0,0-.5L130.341.106a.343.343,0,0,0-.5,0l-3.139,3.138a.351.351,0,0,0,.5.5Z" transform="translate(-122.646 0)" fill="none" stroke="#fff" stroke-width="1"/>
      </g>
    </g>
  </g>
</svg>
