<svg xmlns="http://www.w3.org/2000/svg" width="9.878" height="11.853" viewBox="0 0 9.878 11.853">
  <g id="Group_1082" data-name="Group 1082" transform="translate(-124 -20)">
    <g id="lock" transform="translate(81.333 20)">
      <g id="Group_1076" data-name="Group 1076" transform="translate(42.667)">
        <g id="Group_1075" data-name="Group 1075" transform="translate(0)">
          <path id="Path_960" data-name="Path 960" d="M51.063,3.951V3.457a3.457,3.457,0,1,0-6.915,0v.494a1.484,1.484,0,0,0-1.482,1.482v4.939a1.484,1.484,0,0,0,1.482,1.482h6.915a1.484,1.484,0,0,0,1.482-1.482V5.433A1.484,1.484,0,0,0,51.063,3.951Zm-5.927-.494a2.469,2.469,0,1,1,4.939,0v.494H45.136Z" transform="translate(-42.667)" fill="#dd6838"/>
        </g>
      </g>
      <g id="Group_1078" data-name="Group 1078" transform="translate(46.124 5.68)">
        <g id="Group_1077" data-name="Group 1077">
          <path id="Path_961" data-name="Path 961" d="M193.482,245.333a1.478,1.478,0,0,0-.494,2.873v.832a.494.494,0,1,0,.988,0v-.832a1.478,1.478,0,0,0-.494-2.873Zm0,1.976a.494.494,0,1,1,.494-.494A.494.494,0,0,1,193.482,247.309Z" transform="translate(-192 -245.333)" fill="#fff"/>
        </g>
      </g>
    </g>
  </g>
</svg>
