<svg id="Messages" xmlns="http://www.w3.org/2000/svg" width="44" height="44" viewBox="0 0 44 44">
  <g id="Ellipse_56" data-name="Ellipse 56" fill="#fff" stroke="#664da0" stroke-width="1">
    <circle cx="22" cy="22" r="22" stroke="none"/>
    <circle cx="22" cy="22" r="21.5" fill="none"/>
  </g>
  <g id="chat-comment-oval-speech-bubble-with-text-lines" transform="translate(12 11)">
    <g id="_x32__26_">
      <g id="Group_541" data-name="Group 541">
        <path id="Path_477" data-name="Path 477" d="M13.237,10.716h-6.3a.63.63,0,0,0,0,1.261h6.3a.63.63,0,0,0,0-1.261ZM14.5,6.934H5.673a.63.63,0,0,0,0,1.261H14.5a.63.63,0,0,0,0-1.261ZM10.085,0C4.516,0,0,3.951,0,8.825a8.447,8.447,0,0,0,3.782,6.883v4.463L8.2,17.49a11.566,11.566,0,0,0,1.885.159c5.57,0,10.085-3.951,10.085-8.825S15.656,0,10.085,0Zm0,16.389a10.2,10.2,0,0,1-2.131-.231L4.987,17.941l.04-2.923A7.309,7.309,0,0,1,1.261,8.825c0-4.177,3.951-7.564,8.825-7.564S18.91,4.647,18.91,8.825,14.959,16.389,10.085,16.389Z" fill="#98aa3a" stroke="#98aa3a" stroke-width="0.5"/>
      </g>
    </g>
  </g>
</svg>
