<svg id="Print" xmlns="http://www.w3.org/2000/svg" width="19.335" height="20" viewBox="0 0 19.335 20">
  <g id="Group_445" data-name="Group 445">
    <path id="Path_409" data-name="Path 409" d="M27.485,14V6.62A1.684,1.684,0,0,0,25.8,4.939H23.779V1.082A1.083,1.083,0,0,0,22.7,0H12.938a1.083,1.083,0,0,0-1.082,1.082V4.939H9.832A1.684,1.684,0,0,0,8.15,6.62V14a1.684,1.684,0,0,0,1.682,1.682h2.024v3.241A1.083,1.083,0,0,0,12.938,20H22.7a1.083,1.083,0,0,0,1.082-1.082V15.673H25.8A1.678,1.678,0,0,0,27.485,14ZM12.664,1.082a.273.273,0,0,1,.273-.273H22.7a.273.273,0,0,1,.273.273V4.939H12.664Zm10.31,17.837a.273.273,0,0,1-.273.273H12.938a.273.273,0,0,1-.273-.273v-8.2H22.97v8.2ZM26.677,14a.874.874,0,0,1-.873.873H23.779V10.31a.4.4,0,0,0-.4-.4H12.26a.4.4,0,0,0-.4.4v4.559H9.832A.874.874,0,0,1,8.958,14V6.62a.874.874,0,0,1,.873-.873H25.8a.874.874,0,0,1,.873.873V14Z" transform="translate(-8.15)" fill="#464646"/>
    <path id="Path_410" data-name="Path 410" d="M69.054,181.6a.4.4,0,1,0,.286.69.412.412,0,0,0,.118-.286.419.419,0,0,0-.118-.286A.412.412,0,0,0,69.054,181.6Z" transform="translate(-66.181 -174.188)" fill="#2c2f33"/>
    <path id="Path_411" data-name="Path 411" d="M165.454,357.208h5.727a.4.4,0,1,0,0-.808h-5.727a.4.4,0,1,0,0,.808Z" transform="translate(-158.646 -341.853)" fill="#644c9f"/>
    <path id="Path_412" data-name="Path 412" d="M165.454,413.308h5.727a.4.4,0,1,0,0-.808h-5.727a.4.4,0,1,0,0,.808Z" transform="translate(-158.646 -395.663)" fill="#644c9f"/>
    <path id="Path_413" data-name="Path 413" d="M165.454,301.108h5.727a.4.4,0,1,0,0-.808h-5.727a.4.4,0,1,0,0,.808Z" transform="translate(-158.646 -288.043)" fill="#644c9f"/>
  </g>
</svg>
