<svg id="Logistics" xmlns="http://www.w3.org/2000/svg" width="29" height="29" viewBox="0 0 29 29">
  <g id="Group_902" data-name="Group 902" transform="translate(0 0)">
    <path id="Path_1066" data-name="Path 1066" d="M188.1.275l-1.641,4.1h7.877L192.7.275A.437.437,0,0,0,192.292,0h-3.784a.437.437,0,0,0-.406.275Zm0,0" transform="translate(-175.9 0)" fill="#809399"/>
    <path id="Path_1067" data-name="Path 1067" d="M49.136,52.385l1.74,4.06,5.57-5.57-4.06-1.74a.438.438,0,0,0-.482.093L49.229,51.9a.438.438,0,0,0-.093.482Zm0,0" transform="translate(-46.319 -46.319)" fill="#809399"/>
    <path id="Path_1068" data-name="Path 1068" d="M.275,192.7l4.1,1.641v-7.877L.275,188.1a.437.437,0,0,0-.275.406v3.784a.437.437,0,0,0,.275.406Zm0,0" transform="translate(0 -175.9)" fill="#809399"/>
    <path id="Path_1069" data-name="Path 1069" d="M52.385,340.524l4.06-1.74-5.57-5.57-1.74,4.06a.438.438,0,0,0,.093.482l2.675,2.675a.438.438,0,0,0,.482.093Zm0,0" transform="translate(-46.319 -314.341)" fill="#809399"/>
    <path id="Path_1070" data-name="Path 1070" d="M192.7,438.84l1.641-4.1h-7.877l1.641,4.1a.438.438,0,0,0,.406.275h3.784A.438.438,0,0,0,192.7,438.84Zm0,0" transform="translate(-175.9 -410.115)" fill="#809399"/>
    <path id="Path_1071" data-name="Path 1071" d="M340.524,337.275l-1.74-4.06-5.57,5.57,4.06,1.74a.438.438,0,0,0,.482-.093l2.675-2.675a.438.438,0,0,0,.093-.482Zm0,0" transform="translate(-314.341 -314.342)" fill="#809399"/>
    <path id="Path_1072" data-name="Path 1072" d="M438.84,188.1l-4.1-1.641v7.877l4.1-1.641a.438.438,0,0,0,.275-.406v-3.784A.438.438,0,0,0,438.84,188.1Zm0,0" transform="translate(-410.115 -175.9)" fill="#809399"/>
    <path id="Path_1073" data-name="Path 1073" d="M337.275,49.136l-4.06,1.74,5.57,5.57,1.74-4.06a.437.437,0,0,0-.093-.482l-2.675-2.675A.438.438,0,0,0,337.275,49.136Zm0,0" transform="translate(-314.342 -46.319)" fill="#809399"/>
  </g>
  <path id="Path_1074" data-name="Path 1074" d="M51.914,39.66A12.254,12.254,0,1,0,64.167,51.914,12.268,12.268,0,0,0,51.914,39.66Zm0,0" transform="translate(-37.414 -37.414)" fill="#9cb5bb"/>
  <path id="Path_1075" data-name="Path 1075" d="M102.936,93.746a9.19,9.19,0,1,0,9.19,9.19A9.19,9.19,0,0,0,102.936,93.746Zm0,0" transform="translate(-88.436 -88.436)" fill="#809399"/>
  <path id="Path_1076" data-name="Path 1076" d="M139.531,132.092a7.44,7.44,0,1,1-7.44-7.44A7.439,7.439,0,0,1,139.531,132.092Zm0,0" transform="translate(-117.592 -117.592)" fill="#fff"/>
  <path id="Path_1077" data-name="Path 1077" d="M169.071,206.383a.437.437,0,0,0-.059.219v5.184a.438.438,0,0,0,.219.379l4.489,2.592a.436.436,0,0,0,.219.059l1.751-8.432Zm0,0" transform="translate(-159.439 -194.693)" fill="#ffc43b"/>
  <path id="Path_1078" data-name="Path 1078" d="M270.036,206.375h-4.318l2.626,6.666,1.532-.884a.438.438,0,0,0,.219-.379v-5.184a.437.437,0,0,0-.059-.219Zm0,0" transform="translate(-250.668 -194.685)" fill="#ff852b"/>
  <path id="Path_1079" data-name="Path 1079" d="M256,223.621v7.455a.437.437,0,0,0,.219-.059l2.957-1.707v-5.689Zm0,0" transform="translate(-241.496 -210.955)" fill="#ffa433"/>
  <path id="Path_1080" data-name="Path 1080" d="M174.926,162.305a.437.437,0,0,0,.219-.059l4.649-2.684a.438.438,0,0,0-.16-.16l-4.489-2.592a.438.438,0,0,0-.438,0l-4.489,2.592a.436.436,0,0,0-.16.16l4.649,2.684A.437.437,0,0,0,174.926,162.305Zm0,0" transform="translate(-160.426 -147.873)" fill="#ffd87c"/>
</svg>
