<svg id="whiteboard" xmlns="http://www.w3.org/2000/svg" width="44" height="44" viewBox="0 0 44 44">
  <g id="Ellipse_56" data-name="Ellipse 56" fill="#98aa3a" stroke="#664da0" stroke-width="1">
    <circle cx="22" cy="22" r="22" stroke="none"/>
    <circle cx="22" cy="22" r="21.5" fill="none"/>
  </g>
  <g id="whiteboard-2" data-name="whiteboard" transform="translate(6.25 6.25)">
    <path id="Path_567" data-name="Path 567" d="M108.95,43.333a.325.325,0,0,0-.325.325v2.305a.325.325,0,1,0,.65,0V43.658A.325.325,0,0,0,108.95,43.333Z" transform="translate(-84.591 -31.42)" fill="#fff"/>
    <path id="Path_568" data-name="Path 568" d="M26.425,18.581H25.8V6.467a.325.325,0,0,0-.325-.325H16.632V5.075a.325.325,0,0,0-.325-.325H15.193a.325.325,0,0,0-.325.325V6.142H6.025a.325.325,0,0,0-.325.325V18.581H5.075a.325.325,0,0,0-.325.325v1.671a.325.325,0,0,0,.325.325h7.454l-2.3,4.57a.882.882,0,0,0,1.576.793L14.5,20.9H17l2.7,5.363a.882.882,0,1,0,1.575-.793l-2.3-4.57h7.454a.325.325,0,0,0,.325-.325V18.906a.325.325,0,0,0-.325-.325ZM15.518,5.4h.464v.743h-.464ZM6.35,6.792h18.8V18.581H6.35Zm4.875,19.18a.232.232,0,0,1-.415-.209L13.256,20.9h.52Zm9.465-.208a.232.232,0,0,1-.415.209L17.723,20.9h.52Zm5.41-5.512H5.4V19.231H26.1Z" fill="#fff"/>
  </g>
</svg>
