<svg xmlns="http://www.w3.org/2000/svg" width="25.516" height="19" viewBox="0 0 25.516 19">
  <g id="header" transform="translate(-925.798 -21)">
    <g id="nav-right_menu" data-name="nav-right menu" transform="translate(824.5 0.5)">
      <g id="email" transform="translate(101.298 20.5)">
        <g id="Group_526" data-name="Group 526">
          <g id="Group_525" data-name="Group 525">
            <path id="Path_460" data-name="Path 460" d="M24.24,59.733H1.276A1.258,1.258,0,0,0,0,60.972V77.494a1.258,1.258,0,0,0,1.276,1.239H24.24a1.258,1.258,0,0,0,1.276-1.239V60.972a1.258,1.258,0,0,0-1.276-1.239Zm.425,17.761a.419.419,0,0,1-.425.413H1.276a.419.419,0,0,1-.425-.413V60.972a.419.419,0,0,1,.425-.413H24.24a.419.419,0,0,1,.425.413Z" transform="translate(0 -59.733)" fill="#98aa3a"/>
            <path id="Path_461" data-name="Path 461" d="M55.858,93.867a.433.433,0,0,0-.31.1l-9.811,8a.87.87,0,0,1-1.1,0l-9.811-8a.435.435,0,0,0-.419-.072.416.416,0,0,0-.273.316.407.407,0,0,0,.145.388l9.811,8a1.738,1.738,0,0,0,2.188,0l9.811-8a.409.409,0,0,0,.15-.28.4.4,0,0,0-.1-.3.429.429,0,0,0-.286-.152Z" transform="translate(-32.432 -92.213)" fill="#98aa3a"/>
            <path id="Path_462" data-name="Path 462" d="M40.485,272.935a.433.433,0,0,0-.41.128l-5.954,6.2a.4.4,0,0,0-.1.406.42.42,0,0,0,.315.285.433.433,0,0,0,.41-.128l5.954-6.2a.4.4,0,0,0,.1-.406.42.42,0,0,0-.315-.285Z" transform="translate(-32.306 -262.606)" fill="#98aa3a"/>
            <path id="Path_463" data-name="Path 463" d="M341.944,273.063a.433.433,0,0,0-.41-.128.42.42,0,0,0-.315.285.4.4,0,0,0,.1.406l5.954,6.2a.434.434,0,0,0,.594.013.4.4,0,0,0,.027-.577Z" transform="translate(-324.197 -262.606)" fill="#98aa3a"/>
          </g>
        </g>
      </g>
    </g>
  </g>
</svg>
